/* Program to print the series 1 1 2 3 5 8 13 21 34.....N*/
import java.util.Scanner;
public class Main
{
	public static void main(String[] args) {
		
		//Declaring the variables
		int n1 = 0, n2 = 1,sum=0,N=0;
		
		//Accepting the user input
		Scanner sc=new Scanner(System.in);
		System.out.print("Enter the N values:");
		N=sc.nextInt();
		
		//Applying the logic and executing
		System.out.print(n2+",");
		for(int i=2;i<=N;i++)
		{
			sum = n1+n2;
			System.out.print(sum+",");
			n1 = n2;
			n2 = sum;
		}
		System.out.println();
	}
}
